{
    "name": "InputActions",
    "maps": [
        {
            "name": "PlayerMovement",
            "id": "bb60d2e1-de06-4b7b-8898-af62bfbeaccd",
            "actions": [
                {
                    "name": "Movement",
                    "type": "Button",
                    "id": "3381daf5-6aa0-4212-9292-f868b2f7cf25",
                    "expectedControlType": "Button",
                    "processors": "",
                    "interactions": ""
                },
                {
                    "name": "Run",
                    "type": "Button",
                    "id": "c820c3e0-2a41-49df-b856-acdd9996117f",
                    "expectedControlType": "Button",
                    "processors": "",
                    "interactions": ""
                },
                {
                    "name": "Jump",
                    "type": "Value",
                    "id": "3c0ea3b6-d32b-48f8-bf68-96333bb525bb",
                    "expectedControlType": "Button",
                    "processors": "",
                    "interactions": ""
                },
                {
                    "name": "Look",
                    "type": "Value",
                    "id": "89b76210-404d-48ed-b91e-ddbea9b0b816",
                    "expectedControlType": "Vector2",
                    "processors": "",
                    "interactions": ""
                },
                {
                    "name": "EnableLook",
                    "type": "Button",
                    "id": "ad17c179-9146-49ea-92b4-04bbaef4da0b",
                    "expectedControlType": "Button",
                    "processors": "",
                    "interactions": ""
                },
                {
                    "name": "Zoom",
                    "type": "Value",
                    "id": "13d6cb37-f832-4180-b8d6-58324393ca6e",
                    "expectedControlType": "Axis",
                    "processors": "",
                    "interactions": ""
                }
            ],
            "bindings": [
                {
                    "name": "WASD",
                    "id": "49d6fee5-7dbe-4eb2-9afc-a28bdea2bb6e",
                    "path": "2DVector",
                    "interactions": "",
                    "processors": "",
                    "groups": "",
                    "action": "Movement",
                    "isComposite": true,
                    "isPartOfComposite": false
                },
                {
                    "name": "up",
                    "id": "7bcdac11-de50-4f67-93c8-4ea3df13d3fa",
                    "path": "<Keyboard>/w",
                    "interactions": "",
                    "processors": "",
                    "groups": "Keyboard",
                    "action": "Movement",
                    "isComposite": false,
                    "isPartOfComposite": true
                },
                {
                    "name": "down",
                    "id": "9330680f-4c32-4f28-a9d0-d50063dd1009",
                    "path": "<Keyboard>/s",
                    "interactions": "",
                    "processors": "",
                    "groups": "Keyboard",
                    "action": "Movement",
                    "isComposite": false,
                    "isPartOfComposite": true
                },
                {
                    "name": "left",
                    "id": "9cd4008e-6eb0-45a2-8f5b-3470588a5787",
                    "path": "<Keyboard>/a",
                    "interactions": "",
                    "processors": "",
                    "groups": "Keyboard",
                    "action": "Movement",
                    "isComposite": false,
                    "isPartOfComposite": true
                },
                {
                    "name": "right",
                    "id": "278ef18d-b2fb-4565-b448-28c57efbdeb6",
                    "path": "<Keyboard>/d",
                    "interactions": "",
                    "processors": "",
                    "groups": "Keyboard",
                    "action": "Movement",
                    "isComposite": false,
                    "isPartOfComposite": true
                },
                {
                    "name": "",
                    "id": "1d4e7b66-bb75-423c-a945-6c07bc1a69d6",
                    "path": "<Keyboard>/leftShift",
                    "interactions": "",
                    "processors": "",
                    "groups": "Keyboard",
                    "action": "Run",
                    "isComposite": false,
                    "isPartOfComposite": false
                },
                {
                    "name": "",
                    "id": "165665d5-b405-4013-b283-8bbd91f2320e",
                    "path": "<Keyboard>/space",
                    "interactions": "",
                    "processors": "",
                    "groups": "Keyboard",
                    "action": "Jump",
                    "isComposite": false,
                    "isPartOfComposite": false
                },
                {
                    "name": "",
                    "id": "6ce3346a-6024-4e8b-820e-30a00fb99fce",
                    "path": "<Mouse>/delta",
                    "interactions": "",
                    "processors": "",
                    "groups": "",
                    "action": "Look",
                    "isComposite": false,
                    "isPartOfComposite": false
                },
                {
                    "name": "",
                    "id": "f514bce3-2d45-406f-8f6b-88375dea15ba",
                    "path": "<Mouse>/rightButton",
                    "interactions": "",
                    "processors": "",
                    "groups": "Keyboard",
                    "action": "EnableLook",
                    "isComposite": false,
                    "isPartOfComposite": false
                },
                {
                    "name": "",
                    "id": "148ab169-1008-451e-8cd5-c52ce4f27054",
                    "path": "<Mouse>/scroll",
                    "interactions": "",
                    "processors": "",
                    "groups": "Keyboard",
                    "action": "Zoom",
                    "isComposite": false,
                    "isPartOfComposite": false
                }
            ]
        },
        {
            "name": "Debug",
            "id": "adad4330-407d-4390-9ace-60d94bdd073a",
            "actions": [
                {
                    "name": "ToggleConsole",
                    "type": "Button",
                    "id": "b5517de2-c81f-46ec-844d-fc824d474bb4",
                    "expectedControlType": "Button",
                    "processors": "",
                    "interactions": ""
                }
            ],
            "bindings": [
                {
                    "name": "",
                    "id": "26e2b5f7-f3d1-47f2-9b2c-8c80c176d138",
                    "path": "<Keyboard>/backquote",
                    "interactions": "",
                    "processors": "",
                    "groups": "Keyboard",
                    "action": "ToggleConsole",
                    "isComposite": false,
                    "isPartOfComposite": false
                }
            ]
        }
    ],
    "controlSchemes": [
        {
            "name": "Keyboard",
            "bindingGroup": "Keyboard",
            "devices": [
                {
                    "devicePath": "<Keyboard>",
                    "isOptional": false,
                    "isOR": false
                },
                {
                    "devicePath": "<Mouse>",
                    "isOptional": false,
                    "isOR": false
                }
            ]
        }
    ]
}